module github.com/AH-dark/aliyun-oss-go-sdk/oss

go 1.17

require (
	github.com/baiyubin/aliyun-sts-go-sdk v0.0.0-20180326062324-cfa1a18b161f
	golang.org/x/time v0.0.0-20220411224347-583f2d630306
	gopkg.in/check.v1 v1.0.0-20201130134442-10cb98267c6c
)

require (
	github.com/kr/pretty v0.2.1 // indirect
	github.com/kr/text v0.1.0 // indirect
	github.com/satori/go.uuid v1.2.0 // indirect
)
